EESchema Schematic File Version 4
EELAYER 30 0
EELAYER END
$Descr A 11000 8500
encoding utf-8
Sheet 1 1
Title "Lab0 Part 3.5"
Date ""
Rev ""
Comp "C. Barresi"
Comment1 ""
Comment2 ""
Comment3 ""
Comment4 ""
$EndDescr
$Comp
L ME218_BaseLib:Cap C4
U 1 1 5F640BA3
P 7800 3100
F 0 "C4" H 7915 3146 50  0000 L CNN
F 1 "0.1 uF" H 7915 3055 50  0000 L CNN
F 2 "" H 7838 2950 50  0001 C CNN
F 3 "" H 7800 3100 50  0001 C CNN
	1    7800 3100
	1    0    0    -1  
$EndComp
$Comp
L ME218_BaseLib:Cap C3
U 1 1 5F640EA4
P 5450 5100
F 0 "C3" V 5198 5100 50  0000 C CNN
F 1 "10 uF" V 5289 5100 50  0000 C CNN
F 2 "" H 5488 4950 50  0001 C CNN
F 3 "" H 5450 5100 50  0001 C CNN
	1    5450 5100
	0    1    1    0   
$EndComp
$Comp
L ME218_BaseLib:Res1 R1
U 1 1 5F641832
P 7650 2950
F 0 "R1" V 7445 2950 50  0000 C CNN
F 1 "100" V 7536 2950 50  0000 C CNN
F 2 "" V 7690 2940 50  0001 C CNN
F 3 "" H 7650 2950 50  0001 C CNN
	1    7650 2950
	0    1    1    0   
$EndComp
$Comp
L ME218_BaseLib:Res1 R2
U 1 1 5F641B04
P 7800 2800
F 0 "R2" H 7868 2846 50  0000 L CNN
F 1 "10 k" H 7868 2755 50  0000 L CNN
F 2 "" V 7840 2790 50  0001 C CNN
F 3 "" H 7800 2800 50  0001 C CNN
	1    7800 2800
	1    0    0    -1  
$EndComp
$Comp
L power:GNDREF #PWR04
U 1 1 5F641FA3
P 4750 4700
F 0 "#PWR04" H 4750 4450 50  0001 C CNN
F 1 "GNDREF" H 4755 4527 50  0000 C CNN
F 2 "" H 4750 4700 50  0001 C CNN
F 3 "" H 4750 4700 50  0001 C CNN
	1    4750 4700
	1    0    0    -1  
$EndComp
$Comp
L power:GNDREF #PWR02
U 1 1 5F642357
P 4750 3350
F 0 "#PWR02" H 4750 3100 50  0001 C CNN
F 1 "GNDREF" H 4755 3177 50  0000 C CNN
F 2 "" H 4750 3350 50  0001 C CNN
F 3 "" H 4750 3350 50  0001 C CNN
	1    4750 3350
	1    0    0    -1  
$EndComp
$Comp
L power:GNDREF #PWR07
U 1 1 5F64272A
P 8300 3500
F 0 "#PWR07" H 8300 3250 50  0001 C CNN
F 1 "GNDREF" H 8305 3327 50  0000 C CNN
F 2 "" H 8300 3500 50  0001 C CNN
F 3 "" H 8300 3500 50  0001 C CNN
	1    8300 3500
	1    0    0    -1  
$EndComp
$Comp
L power:GNDREF #PWR05
U 1 1 5F642B06
P 5300 5100
F 0 "#PWR05" H 5300 4850 50  0001 C CNN
F 1 "GNDREF" H 5305 4927 50  0000 C CNN
F 2 "" H 5300 5100 50  0001 C CNN
F 3 "" H 5300 5100 50  0001 C CNN
	1    5300 5100
	1    0    0    -1  
$EndComp
$Comp
L ME218_BaseLib:SW_Push SW1
U 1 1 5F6437FD
P 8300 3200
F 0 "SW1" V 8254 3348 50  0000 L CNN
F 1 "RESET" V 8345 3348 50  0000 L CNN
F 2 "" H 8300 3400 50  0001 C CNN
F 3 "~" H 8300 3400 50  0001 C CNN
	1    8300 3200
	0    1    1    0   
$EndComp
Connection ~ 7800 2950
Wire Wire Line
	7800 2950 8300 2950
Wire Wire Line
	8300 2950 8300 3000
Wire Wire Line
	7800 3250 7800 3500
Wire Wire Line
	7800 3500 8300 3500
Wire Wire Line
	8300 3500 8300 3400
Connection ~ 8300 3500
$Comp
L ME218_BaseLib:Cap C1
U 1 1 5F64A1E6
P 4750 3100
F 0 "C1" H 4500 3150 50  0000 L CNN
F 1 "0.1 uF" H 4400 3000 50  0000 L CNN
F 2 "" H 4788 2950 50  0001 C CNN
F 3 "" H 4750 3100 50  0001 C CNN
	1    4750 3100
	1    0    0    -1  
$EndComp
$Comp
L ME218_BaseLib:Cap C2
U 1 1 5F64AC88
P 4750 4550
F 0 "C2" H 4865 4596 50  0000 L CNN
F 1 "0.1 uF" H 4865 4505 50  0000 L CNN
F 2 "" H 4788 4400 50  0001 C CNN
F 3 "" H 4750 4550 50  0001 C CNN
	1    4750 4550
	1    0    0    -1  
$EndComp
$Comp
L power:+3.3VA #PWR06
U 1 1 5F64C195
P 7800 2650
F 0 "#PWR06" H 7800 2500 50  0001 C CNN
F 1 "+3.3VA" H 7815 2823 50  0000 C CNN
F 2 "" H 7800 2650 50  0001 C CNN
F 3 "" H 7800 2650 50  0001 C CNN
	1    7800 2650
	1    0    0    -1  
$EndComp
$Comp
L power:+3.3VA #PWR01
U 1 1 5F64CC51
P 4750 2950
F 0 "#PWR01" H 4750 2800 50  0001 C CNN
F 1 "+3.3VA" H 4765 3123 50  0000 C CNN
F 2 "" H 4750 2950 50  0001 C CNN
F 3 "" H 4750 2950 50  0001 C CNN
	1    4750 2950
	1    0    0    -1  
$EndComp
$Comp
L power:+3.3VA #PWR03
U 1 1 5F64E218
P 4750 4400
F 0 "#PWR03" H 4750 4250 50  0001 C CNN
F 1 "+3.3VA" H 4765 4573 50  0000 C CNN
F 2 "" H 4750 4400 50  0001 C CNN
F 3 "" H 4750 4400 50  0001 C CNN
	1    4750 4400
	1    0    0    -1  
$EndComp
Connection ~ 4750 4400
Connection ~ 4750 2950
Connection ~ 4750 4700
Connection ~ 4750 3250
Connection ~ 5300 5100
$Comp
L ME218_BaseLib:PIC32MX170F256B U1
U 1 1 5F643C65
P 5800 3800
F 0 "U1" H 5525 4915 50  0000 C CNN
F 1 "PIC32MX170F256B" H 5525 4824 50  0000 C CNN
F 2 "" H 5800 3800 50  0001 C CNN
F 3 "" H 5800 3800 50  0001 C CNN
	1    5800 3800
	1    0    0    -1  
$EndComp
NoConn ~ 6300 3500
NoConn ~ 6300 3600
NoConn ~ 6300 3700
NoConn ~ 6300 3800
NoConn ~ 6300 3900
NoConn ~ 6300 4000
NoConn ~ 6300 4100
NoConn ~ 6300 4200
NoConn ~ 6300 4300
NoConn ~ 6300 4400
NoConn ~ 6300 4500
NoConn ~ 6300 4600
NoConn ~ 6300 4700
NoConn ~ 6300 4800
NoConn ~ 4750 4050
NoConn ~ 4750 3950
NoConn ~ 4750 3850
NoConn ~ 4750 3750
NoConn ~ 4750 3650
Wire Wire Line
	4750 3250 4750 3350
$Comp
L ME218_BaseLib:MPLAB_Snap PRG?
U 1 1 5F6AA60D
P 7500 4050
F 0 "PRG?" H 7780 3914 50  0000 L CNN
F 1 "MPLAB_Snap" H 7780 3823 50  0000 L CNN
F 2 "" H 7500 4050 50  0001 C CNN
F 3 "" H 7500 4050 50  0001 C CNN
	1    7500 4050
	1    0    0    -1  
$EndComp
$Comp
L power:+3.3VA #PWR?
U 1 1 5F6C9420
P 6850 3350
F 0 "#PWR?" H 6850 3200 50  0001 C CNN
F 1 "+3.3VA" H 6865 3523 50  0000 C CNN
F 2 "" H 6850 3350 50  0001 C CNN
F 3 "" H 6850 3350 50  0001 C CNN
	1    6850 3350
	1    0    0    -1  
$EndComp
Wire Wire Line
	7050 3850 7050 2950
Wire Wire Line
	6300 2950 7050 2950
Wire Wire Line
	7500 2950 7050 2950
Connection ~ 7050 2950
Wire Wire Line
	6850 3950 7050 3950
$Comp
L power:GNDREF #PWR?
U 1 1 5F6D199C
P 6750 4050
F 0 "#PWR?" H 6750 3800 50  0001 C CNN
F 1 "GNDREF" H 6755 3877 50  0000 C CNN
F 2 "" H 6750 4050 50  0001 C CNN
F 3 "" H 6750 4050 50  0001 C CNN
	1    6750 4050
	1    0    0    -1  
$EndComp
Wire Wire Line
	6850 3950 6850 3350
Wire Wire Line
	6750 4050 7050 4050
Wire Wire Line
	7050 4150 6950 4150
Wire Wire Line
	6950 4150 6950 4300
Wire Wire Line
	6950 4300 6550 4300
Wire Wire Line
	6550 4300 6550 3300
Wire Wire Line
	6550 3300 6300 3300
Wire Wire Line
	6300 3400 6450 3400
Wire Wire Line
	6450 3400 6450 4450
Wire Wire Line
	6450 4450 7050 4450
Wire Wire Line
	7050 4450 7050 4250
Text Notes 7050 3350 0    50   ~ 0
Blue
Text Notes 6850 3600 0    50   ~ 0
Red
Text Notes 6850 4050 0    50   ~ 0
Black
Text Notes 6350 3300 0    50   ~ 0
Yellow
Text Notes 6600 4450 0    50   ~ 0
Green
$EndSCHEMATC
